{
    "/api/js": {
        "target": "https://maps.googleapis.com/maps",
        "secure": true,
        "changeOrigin": true
        },
    
    "/api": {
      "target": "https://stg2.dailynickel.com",
      "secure": true,
      "changeOrigin": true
      }
    
}